…
# Exercise 3: Include examples

## Example 01:

``` r
# Check the number of species and its proportion to the total species for every distinct neighbourhood_name
vancouver_trees_summary_by_neighbourhood <- group_distinct_col_count_prop(vancouver_trees, group_col = "neighbourhood_name", summary_col = "species_name")
vancouver_trees_summary_by_neighbourhood
```

    ## # A tibble: 22 × 3
    ##    neighbourhood_name       total proportion
    ##    <chr>                    <int>      <dbl>
    ##  1 ARBUTUS-RIDGE              121      0.428
    ##  2 DOWNTOWN                    79      0.279
    ##  3 DUNBAR-SOUTHLANDS          161      0.569
    ##  4 FAIRVIEW                   119      0.420
    ##  5 GRANDVIEW-WOODLAND         146      0.516
    ##  6 HASTINGS-SUNRISE           176      0.622
    ##  7 KENSINGTON-CEDAR COTTAGE   159      0.562
    ##  8 KERRISDALE                 138      0.488
    ##  9 KILLARNEY                  122      0.431
    ## 10 KITSILANO                  171      0.604
    ## # ℹ 12 more rows

## Example 02:

``` r
# Check the number of species and its proportion to the total species for every distinct std_street
vancouver_trees_summary_by_str_street <- group_distinct_col_count_prop(vancouver_trees, group_col = "std_street", summary_col = "species_name")
vancouver_trees_summary_by_str_street
```

    ## # A tibble: 805 × 3
    ##    std_street   total proportion
    ##    <chr>        <int>      <dbl>
    ##  1 ABBOTT ST       10    0.0353 
    ##  2 ABERDEEN ST     12    0.0424 
    ##  3 ADANAC ST       50    0.177  
    ##  4 ADERA ST        42    0.148  
    ##  5 AISNE ST         2    0.00707
    ##  6 ALAMEIN AV       5    0.0177 
    ##  7 ALBERNI ST      20    0.0707 
    ##  8 ALBERTA ST      44    0.155  
    ##  9 ALDER ST         8    0.0283 
    ## 10 ALEXANDER ST    22    0.0777 
    ## # ℹ 795 more rows

## Example 03:

``` r
vancouver_trees
```

    ## # A tibble: 146,611 × 20
    ##    tree_id civic_number std_street    genus_name species_name cultivar_name  
    ##      <dbl>        <dbl> <chr>         <chr>      <chr>        <chr>          
    ##  1  149556          494 W 58TH AV     ULMUS      AMERICANA    BRANDON        
    ##  2  149563          450 W 58TH AV     ZELKOVA    SERRATA      <NA>           
    ##  3  149579         4994 WINDSOR ST    STYRAX     JAPONICA     <NA>           
    ##  4  149590          858 E 39TH AV     FRAXINUS   AMERICANA    AUTUMN APPLAUSE
    ##  5  149604         5032 WINDSOR ST    ACER       CAMPESTRE    <NA>           
    ##  6  149616          585 W 61ST AV     PYRUS      CALLERYANA   CHANTICLEER    
    ##  7  149617         4909 SHERBROOKE ST ACER       PLATANOIDES  COLUMNARE      
    ##  8  149618         4925 SHERBROOKE ST ACER       PLATANOIDES  COLUMNARE      
    ##  9  149619         4969 SHERBROOKE ST ACER       PLATANOIDES  COLUMNARE      
    ## 10  149625          720 E 39TH AV     FRAXINUS   AMERICANA    AUTUMN APPLAUSE
    ## # ℹ 146,601 more rows
    ## # ℹ 14 more variables: common_name <chr>, assigned <chr>, root_barrier <chr>,
    ## #   plant_area <chr>, on_street_block <dbl>, on_street <chr>,
    ## #   neighbourhood_name <chr>, street_side_name <chr>, height_range_id <dbl>,
    ## #   diameter <dbl>, curb <chr>, date_planted <date>, longitude <dbl>,
    ## #   latitude <dbl>

``` r
# Check the number of species and its proportion to the total species for every distinct genus
vancouver_trees_summary_by_genus <- group_distinct_col_count_prop(vancouver_trees, group_col = "genus_name", summary_col = "species_name")
vancouver_trees_summary_by_genus
```

    ## # A tibble: 97 × 3
    ##    genus_name  total proportion
    ##    <chr>       <int>      <dbl>
    ##  1 ABIES           8    0.0283 
    ##  2 ACER           31    0.110  
    ##  3 AESCULUS        6    0.0212 
    ##  4 AILANTHUS       1    0.00353
    ##  5 ALBIZIA         1    0.00353
    ##  6 ALNUS           4    0.0141 
    ##  7 AMELANCHIER     4    0.0141 
    ##  8 ARALIA          1    0.00353
    ##  9 ARAUCARIA       1    0.00353
    ## 10 ARBUTUS         2    0.00707
    ## # ℹ 87 more rows
…
